…
让我们来数一数每个单词:

```
> library(dplyr)
> words %>% group_by(word) %>% summarise(count=n()) %>% arrange(desc(count))
# A tibble: 5,047 x 2
    word count
   <chr> <int>
 1   the  1863
 2   and  1262
 3     a  1217
 4    to  1170
 5     i  1135
 6    of   985
 7  that   878
 8    it   796
 9    in   681
10   you   681
# ... with 5,037 more rows
```

因此，正如您所料，我们在脚本中最常用的词大多是停用词。移除它们实际上非常简单:

```
> words <- words %>% **anti_join(stop_words)**
> words %>% group_by(word) %>% summarise(count=n()) %>% arrange(desc(count))
# A tibble: 4,496 x 2
      word count
     <chr> <int>
 1  people   157
 2  design   123
 3    time   110
 4   music   107
 5 playing    97
 6     car    66
 7    yeah    66
 8    feel    56
 9    idea    50
10   world    50
# ... with 4,486 more rows
```

现在引起我注意的是“音乐”这个词是第四个最常用的词。据我回忆，除了第三集有 Ev Devlin，这个系列没有太多关于音乐的内容。当我在文本编辑器中打开由 TTML 文件生成的标签限定的文件，并搜索“音乐”时，这个词出现频率如此之高的原因对我来说变得很清楚。字幕中提到了很多背景音乐，例如，我仅在第一集就发现了以下短语:

[电子音乐继续播放]，[电子音乐结束]，[不祥的音乐播放]，[平静的音乐播放]，[乐观的钢琴音乐播放]，[爵士音乐播放]，[电子音乐播放]，[电子音乐继续]，[编钟音乐播放]，[平静的音乐播放]，[平静的音乐继续]，[编钟音乐播放]，[乐观的音乐播放]，[器乐播放]

我使用正则表达式从脚本中删除这些短语，并重复上面的步骤来获得单词及其计数:

```
> d$script <- gsub('\\[(?:\\w+\\s){0,3}music(?:\\s\\w+){0,3}\\]', "", d$script, perl=T)
> words <- unnest_tokens(d, word, script)
> words <- words %>% anti_join(stop_words)
> words %>% group_by(word) %>% summarise(count=n()) %>% arrange(desc(count))
> words
# A tibble: 4,485 x 2
     word count
    <chr> <int>
 1 people   157
 2 design   123
 3   time   110
 4    car    66
 5   yeah    66
 6   feel    56
 7   idea    50
 8  world    50
 9  ralph    49
10   love    48
# ... with 4,475 more rows
```
…
