…
**除了上面的分析，我还想评估一个作者在写正面评论和负面评论时付出的努力之间的相关性。这是通过绘制正面和负面评论的字数来完成的。**

```
*# Create effort* 
> effort <- tidy_reviews_without_stopwords %>% count(id) *# Inner join* 
> pos_neg_with_effort <- inner_join(pos_neg, effort) *# Review* 
> pos_neg_with_effort  
A tibble: 953 x 5 Groups: id [?] 
id      negative     positive      polarity     n 
1 1         0            4             4        26 
2 2         0            3             3        27 
3 3         0            3             3        16 
4 4         0            6             6        32 
5 5         0            2             2         8 
6 6         0            3             3        21 
7 7         0            5             5        18 
8 8         0            2             2        10 
9 9         0            4             4        12 
10 10       1           15            14        46 
*# ... with 943 more rows * *# Add pol* 
…
